<?xml version="1.0" encoding="UTF-8" standalone="no"?>
<svg
   xmlns:dc="http://purl.org/dc/elements/1.1/"
   xmlns:cc="http://creativecommons.org/ns#"
   xmlns:rdf="http://www.w3.org/1999/02/22-rdf-syntax-ns#"
   xmlns:svg="http://www.w3.org/2000/svg"
   xmlns="http://www.w3.org/2000/svg"
   xmlns:sodipodi="http://sodipodi.sourceforge.net/DTD/sodipodi-0.dtd"
   xmlns:inkscape="http://www.inkscape.org/namespaces/inkscape"
   sodipodi:docname="repeat.svg"
   inkscape:version="1.0 (1.0+r72)"
   inkscape:export-ydpi="25.4"
   inkscape:export-xdpi="25.4"
   inkscape:export-filename="/home/simon/Dokumente/Testarea/Java/Game of Life/src/assets/repeat.png"
   id="svg853"
   version="1.1"
   viewBox="0 0 23 23"
   height="23mm"
   width="23mm">
  <defs
     id="defs847" />
  <sodipodi:namedview
     inkscape:window-maximized="1"
     inkscape:window-y="0"
     inkscape:window-x="0"
     inkscape:window-height="964"
     inkscape:window-width="1920"
     showgrid="false"
     inkscape:document-rotation="0"
     inkscape:current-layer="layer1"
     inkscape:document-units="mm"
     inkscape:cy="50.483429"
     inkscape:cx="47.743231"
     inkscape:zoom="6.7339468"
     inkscape:pageshadow="2"
     inkscape:pageopacity="0.0"
     borderopacity="1.0"
     bordercolor="#666666"
     pagecolor="#ffffff"
     id="base" />
  <metadata
     id="metadata850">
    <rdf:RDF>
      <cc:Work
         rdf:about="">
        <dc:format>image/svg+xml</dc:format>
        <dc:type
           rdf:resource="http://purl.org/dc/dcmitype/StillImage" />
        <dc:title></dc:title>
      </cc:Work>
    </rdf:RDF>
  </metadata>
  <g
     id="layer1"
     inkscape:groupmode="layer"
     inkscape:label="Ebene 1">
    <path
       transform="rotate(-88.362169)"
       d="m -4.6687775,11.85404 a 7.5561361,7.5584264 0 0 1 -5.3792605,7.237966 7.5561361,7.5584264 0 0 1 -8.478723,-3.06754 7.5561361,7.5584264 0 0 1 0.493925,-9.005444 7.5561361,7.5584264 0 0 1 8.7633173,-2.1212851"
       sodipodi:arc-type="arc"
       sodipodi:open="true"
       sodipodi:end="5.1142428"
       sodipodi:start="0"
       sodipodi:ry="7.5584264"
       sodipodi:rx="7.5561361"
       sodipodi:cy="11.85404"
       sodipodi:cx="-12.224914"
       sodipodi:type="arc"
       id="path855"
       style="opacity:0.989434;fill:none;stroke:#666666;stroke-width:0.889091;stroke-miterlimit:4;stroke-dasharray:none" />
    <path
       transform="rotate(-67.580092,8.625121,6.1945273)"
       inkscape:transform-center-y="-0.13803354"
       inkscape:transform-center-x="0.59426945"
       d="M 12.879766,7.5736422 10.685142,8.7377234 8.4905184,9.9018049 8.5797065,7.4191642 8.6688943,4.9365235 10.77433,6.2550829 Z"
       inkscape:randomized="0"
       inkscape:rounded="0"
       inkscape:flatsided="false"
       sodipodi:arg2="1.0831067"
       sodipodi:arg1="0.035909175"
       sodipodi:r2="1.4342778"
       sodipodi:r1="2.8685558"
       sodipodi:cy="7.4706569"
       sodipodi:cx="10.01306"
       sodipodi:sides="3"
       id="path1418"
       style="opacity:0.989434;fill:#666666;stroke:#666666;stroke-width:1;stroke-miterlimit:4;stroke-dasharray:none"
       sodipodi:type="star" />
  </g>
</svg>
